race;date_naissance;sexe;pseudo;commentaire
1;2016-02-23;NULL;Canigou;Oreille lacérée
1;2002-11-02;M;Pluto;Mordille beaucoup
1;1995-09-05;F;Missie;NULL
1;2003-02-27;M;Waouf;NULL
1;2016-03-17;NULL;Bill;Dernière portée de Barjotte
1;2016-03-17;NULL;Sed;Dernière portée de Barjotte
1;2003-06-01;F;Barjotte;NULL
1;2016-03-17;NULL;Nonoss;Dernière portée de Barjotte
2;2006-03-09;F;Miaou;NULL
2;2009-06-27;F;Minette;NULL
2;2007-12-22;M;Lourd;Aime les calins
2;2016-03-03;NULL;Petio;NULL
2;2000-02-23;M;Siestas;NULL
3;2016-01-21;NULL;Sharky;NULL
3;1983-05-27;M;Mordeur;Il peut être dangereux
3;2016-02-04;NULL;Bronzé;NULL
4;1950-04-20;F;Caline;Manque une patte
4;1996-08-21;F;Justy;Carapace endommagée
4;2010-03-08;F;Lizzie;NULL
4;2002-09-10;M;Lucky;NULL
5;2016-02-20;F;Bobonne;NULL
5;1953-05-19;M;Maouss;Défense cassée
5;1985-04-23;F;Matrone;Maman de Léa et Courreur
5;2016-04-20;NULL;Courreur;Petit mais court vite
5;2016-04-06;F;Léa;NULL
6;2011-01-11;F;Héléna;NULL
6;1979-04-24;M;Marco;NULL
6;2016-03-12;NULL;Finaud;NULL
6;1970-05-05;M;Molosse;Entaille sur le flanc droit
7;1997-03-14;M;Grand;NULL
7;2004-01-29;M;Fin;NULL
7;2009-06-28;F;Grande;NULL
7;2008-11-15;F;Élancée;Boite
8;2004-10-11;M;Pato;NULL
8;1988-11-08;F;Baronne;NULL
9;2016-02-18;M;Dixon;NULL
9;1999-04-05;M;Seigneur;Male alpha
9;2006-02-24;M;Vengeur;NULL
9;2016-04-09;NULL;Noiraud;Frère ou sœur de Blanco
9;2016-04-09;NULL;Blanco;Frère ou sœur de Noiraud
9;2012-06-07;F;Belle;Femelle alpha
10;1997-06-15;M;Chef;NULL
10;2015-04-21;M;Pongo;Fratrie avec Parker et Fraisa
10;2015-04-21;M;Parker;Fratrie avec Pongo et Fraisa
10;2015-04-21;F;Fraisa;Fratrie avec Pongo et Parker
10;2016-02-23;NULL;Vif;NULL
10;2006-07-14;F;Mam;NULL
10;2015-09-27;F;Séverine;NULL
